module trusted_content_resolver

go 1.21

require github.com/cucumber/godog v0.13.0

require (
	github.com/cucumber/gherkin/go/v26 v26.2.0 // indirect
	github.com/cucumber/messages/go/v21 v21.0.1 // indirect
	github.com/gofrs/uuid v4.3.1+incompatible // indirect
	github.com/hashicorp/go-immutable-radix v1.3.1 // indirect
	github.com/hashicorp/go-memdb v1.3.4 // indirect
	github.com/hashicorp/golang-lru v0.5.4 // indirect
	github.com/spf13/pflag v1.0.5 // indirect
)
